EDA
…
diabetes_data$Age <- factor(diabetes_data$Age,
                                     levels = c(1, 2, 3, 4, 5, 6, 7, 8,  9, 10, 11, 12, 13),
                                     labels = c("18-24", "25-29", "30-34", "35-39", "40-44", "45-49", "50-54", "55-59", "60-64","65-69", "70-74", "75-79", "80 or Older"))

diabetes_data$Education <- factor(diabetes_data$Education,
                                     levels = c(1, 2, 3, 4, 5, 6),
                                     labels = c("Never attended or kindergarden", "Completed Elementary", "Completed Middle", "Completed Highschool","Some college", "College 4 or more years" ))

diabetes_data$Income <- factor(diabetes_data$Income,
                                     levels = c(1, 5, 8),
                                     labels = c("<10000", "<35000", ">=75000"))

diabetes_data

# A tibble: 253,680 × 22
   Diabetes_012 HighBP     HighChol            CholCheck       BMI Smoker Stroke
   <fct>        <fct>      <fct>               <fct>         <dbl> <fct>  <fct> 
 1 No diabetes  High BP    high cholesterol    Cholesterol …    40 not a… No    
 2 No diabetes  No high BP No high cholesterol No cholester…    25 not a… No    
 3 No diabetes  High BP    high cholesterol    Cholesterol …    28 smoker No    
 4 No diabetes  High BP    No high cholesterol Cholesterol …    27 smoker No    
 5 No diabetes  High BP    high cholesterol    Cholesterol …    24 smoker No    
 6 No diabetes  High BP    high cholesterol    Cholesterol …    25 not a… No    
 7 No diabetes  High BP    No high cholesterol Cholesterol …    30 not a… No    
 8 No diabetes  High BP    high cholesterol    Cholesterol …    25 not a… No    
 9 Diabetes     High BP    high cholesterol    Cholesterol …    30 not a… No    
10 No diabetes  No high BP No high cholesterol Cholesterol …    24 smoker No    
# ℹ 253,670 more rows
# ℹ 15 more variables: HeartDiseaseorAttack <fct>, PhysActivity <fct>,
#   Fruits <fct>, Veggies <fct>, HvyAlcoholConsump <fct>, AnyHealthcare <fct>,
#   NoDocbcCost <fct>, GenHlth <fct>, MentHlth <dbl>, PhysHlth <dbl>,
#   DiffWalk <fct>, Sex <fct>, Age <fct>, Education <fct>, Income <fct>
…
